Get tickers — tickers • cex
…
    Value

    A tibble

    Details

    Wraps https://cex.io/api/tickers/{symbol1}/{symbol2}/.../{symbolN}.

    Examples

# All pairs with USD as quote.
tickers("USD")

#> # A tibble: 87 × 11
#>    time                pair     low     high     last     volume volume30d price_change
#>    <dttm>              <chr>    <chr>   <chr>    <chr>    <chr>  <chr>     <chr>       
#>  1 2021-09-05 06:05:51 BTC:USD  49474.8 50483.9  49719.8  86.77… 4698.601… -517.7      
#>  2 2021-09-05 06:05:51 ETH:USD  3836.52 3946.42  3863.03  1977.… 120072.9… -58.03      
#>  3 2021-09-05 06:05:51 BCH:USD  698.3   731.95   701.87   1181.… 35241.12… -3.35       
#>  4 2021-09-05 06:05:51 DASH:USD 245.826 254.4    250.409  1125.… 44768.41… -2.667      
#>  5 2021-09-05 06:05:51 LTC:USD  209.481 223.77   213.552  24069… 377342.1… 1.873       
#>  6 2021-09-05 06:05:51 XRP:USD  1.23544 1.28791  1.24587  19458… 13035167… -0.03128    
#>  7 2021-09-05 06:05:51 XLM:USD  0.36738 0.43689  0.37228  21931… 54179106… -0.00151    
#>  8 2021-09-05 06:05:51 OMG:USD  6.96759 7.27894  7.22556  19961… 727006.7… 0.23323     
#>  9 2021-09-05 06:05:51 MHC:USD  0.0111  0.0118   0.0113   55202… 81894962… -0.0002     
#> 10 2021-09-05 06:05:51 TRX:USD  0.10006 0.103303 0.101809 67302… 22044189… 0.001117    
#> # … with 77 more rows, and 3 more variables: price_change_percentage <chr>,
#> #   bid <dbl>, ask <dbl>
…
